{
  "template" : "http-*",
  "version" : 1611171612 ,
  "settings" : { "index.refresh_interval" : "5s"  },
  "mappings" : {
    "_default_" : {
      "_all" : {"enabled" : false, "norms" : false},
      "dynamic_templates" : [ {
        "message_field" : {
          "path_match" : "message",
          "match_mapping_type" : "string",
          "mapping" : { "type" : "text", "norms" : false
          }
        }
      }, {
        "string_fields" : {
          "match" : "*",
          "match_mapping_type" : "string",
          "mapping" : {
            "type" : "text", "norms" : false,
            "fields" : {
              "keyword" : { "type": "keyword" }
            }
          }
        }
      } ],
      "properties" : {
          "@timestamp"       : { "type" : "date", "include_in_all"    : false },
          "@version"         : { "type" : "keyword", "include_in_all" : false },
          "bytes"            : { "type" : "long"},
          "request_time"     : { "type" : "half_float"},
          "upstream_time"    : { "type" : "half_float"},
          "response"         : { "type" : "short"},
          "clientip"         : { "type" : "ip" },
          "geoip" : { "dynamic" : true, "properties" : {
              "ip" : { "type" : "ip" }, "location" : { "type" : "geo_point" },  "latitude" : { "type" : "half_float" },   "longitude" : { "type" : "half_float" } } }
      }
    }
  }
}
